Spatial data in R
…
.pull-right[

```r
shp %>% st_drop_geometry %>% tibble()
```

```
## # A tibble: 28 × 4
##    nr    gid   name         flaeche         
##    <chr> <chr> <chr>        <chr>           
##  1 34    10    Kappel       13821673.9790869
##  2 53    16    Betzenhausen 2162662.7992333 
##  3 63    23    Opfingen     14624254.0880103
##  4 21    3     Herdern      4294806.05614526
##  5 31    7     Waldsee      4831312.05680027
##  6 41    11    Oberau       1282197.16288387
##  7 43    13    Günterstal   15103550.9922429
##  8 56    19    Waltershofen 7583387.61667147
##  9 61    21    Haslach      3419892.44314375
## 10 62    22    St. Georgen  10665885.466873 
## # … with 18 more rows
```
…
